-------------------------------------------------------------------------------
Test set: com.servicenow.tests.GetAPITest
-------------------------------------------------------------------------------
Tests run: 6, Failures: 0, Errors: 0, Skipped: 0, Time elapsed: 8.402 sec
